…
| term              |   estimate|  std.error|  statistic|  p.value|
|:------------------|----------:|----------:|----------:|--------:|
| (Intercept)       |  -3540.020|     99.553|    -35.559|    0.000|
| mraceAsian        |   -106.868|     51.516|     -2.074|    0.038|
| mraceBlack        |   -161.257|     11.328|    -14.235|    0.000|
| mracePuerto Rican |   -108.760|     22.686|     -4.794|    0.000|
| blength           |    133.865|      1.890|     70.832|    0.000|
| momage            |      3.578|      1.400|      2.556|    0.011|

``` r
modelr::add_residuals(birthweight, model_1)
```

    ## # A tibble: 4,342 x 21
    ##    babysex bhead blength   bwt delwt fincome frace gaweeks malform menarche
    ##    <fct>   <int>   <int> <int> <int>   <int> <fct>   <dbl> <fct>      <int>
    ##  1 female     34      51  3629   177      35 White    39.9 absent        13
    ##  2 male       34      48  3062   156      65 Black    25.9 absent        14
    ##  3 female     36      50  3345   148      85 White    39.9 absent        12
    ##  4 male       34      52  3062   157      55 White    40   absent        14
    ##  5 female     34      52  3374   156       5 White    41.6 absent        13
    ##  6 male       33      52  3374   129      55 White    40.7 absent        12
    ##  7 female     33      46  2523   126      96 Black    40.3 absent        14
    ##  8 female     33      49  2778   140       5 White    37.4 absent        12
    ##  9 male       36      52  3515   146      85 White    40.3 absent        11
    ## 10 male       33      50  3459   169      75 Black    40.7 absent        12
    ## # ... with 4,332 more rows, and 11 more variables: mheight <int>,
    ## #   momage <int>, mrace <fct>, parity <int>, pnumlbw <int>, pnumsga <int>,
    ## #   ppbmi <dbl>, ppwt <int>, smoken <dbl>, wtgain <int>, resid <dbl>

``` r
modelr::add_predictions(birthweight, model_1)
```

    ## # A tibble: 4,342 x 21
    ##    babysex bhead blength   bwt delwt fincome frace gaweeks malform menarche
    ##    <fct>   <int>   <int> <int> <int>   <int> <fct>   <dbl> <fct>      <int>
    ##  1 female     34      51  3629   177      35 White    39.9 absent        13
    ##  2 male       34      48  3062   156      65 Black    25.9 absent        14
    ##  3 female     36      50  3345   148      85 White    39.9 absent        12
    ##  4 male       34      52  3062   157      55 White    40   absent        14
    ##  5 female     34      52  3374   156       5 White    41.6 absent        13
    ##  6 male       33      52  3374   129      55 White    40.7 absent        12
    ##  7 female     33      46  2523   126      96 Black    40.3 absent        14
    ##  8 female     33      49  2778   140       5 White    37.4 absent        12
    ##  9 male       36      52  3515   146      85 White    40.3 absent        11
    ## 10 male       33      50  3459   169      75 Black    40.7 absent        12
    ## # ... with 4,332 more rows, and 11 more variables: mheight <int>,
    ## #   momage <int>, mrace <fct>, parity <int>, pnumlbw <int>, pnumsga <int>,
    ## #   ppbmi <dbl>, ppwt <int>, smoken <dbl>, wtgain <int>, pred <dbl>
…
